{
    "$schema": "http://json-schema.org/draft-04/schema#",
    "properties": {
        "Architecture": {
            "enum": [
                "32-bit",
                "64-bit"
            ]
        },
        "DefaultGateway": {
            "type": "string"
        },
        "FullyQualifiedDomainName": {
            "pattern": ".*(\\.AD\\.DNCINC\\.COM|\\.ad\\.dncinc\\.com)",
            "type": "string"
        },
        "HardDrive": {
            "properties": {
                "Capacity": {
                    "type": "integer"
                },
                "FreeSpace": {
                    "type": "integer"
                }
            },
            "required": [
                "Capacity",
                "FreeSpace"
            ],
            "type": "object"
        },
        "IPAddress": {
            "type": "string"
        },
        "MACAddress": {
            "type": "string"
        },
        "Memory": {
            "properties": {
                "Physical": {
                    "type": "integer"
                },
                "Virtual": {
                    "type": "integer"
                }
            },
            "required": [
                "Physical",
                "Virtual"
            ],
            "type": "object"
        },
        "OperatingSystem": {
            "properties": {
                "Family": {
                  "type": "string",
                  "pattern": ".*Windows.*"
                },
                "Version": {
                  "type": "integer"
                }
            },
            "required": [
                "Family",
                "Version"
            ],
            "type": "object"
        },
        "PowershellVersion": {
            "minimum": 5,
            "type": "integer"
        }
    },
    "required": [
        "Architecture",
        "OperatingSystem",
        "FullyQualifiedDomainName",
        "MACAddress",
        "DefaultGateway",
        "IPAddress",
        "Memory",
        "PowershellVersion",
        "HardDrive"
    ],
    "title": "NetSuite",
    "type": "object"
}
